{
  "key": "${addon.key}",
  "baseUrl": "${addon.base-url}",
  "name": "Atlassian Connect Spring Boot Clojure Sample",
  "authentication": {
    "type": "jwt"
  },
  "lifecycle": {
    "installed": "/installed",
    "uninstalled": "/uninstalled"
  },
  "modules": {
    "generalPages": [
      {
        "key": "clojure-page",
        "location": "system.top.navigation.bar",
        "name": {
          "value": "Clojure"
        },
        "url": "/iframe"
      }
    ]
  }
}
